{
  "routes": [
    {
      "method": "GET",
      "path": "/general-notifications",
      "handler": "general-notifications.find",
      "config": {
        "policies": []
      }
    },
    {
      "method": "GET",
      "path": "/general-notifications/count",
      "handler": "general-notifications.count",
      "config": {
        "policies": []
      }
    },
    {
      "method": "GET",
      "path": "/general-notifications/:id",
      "handler": "general-notifications.findOne",
      "config": {
        "policies": []
      }
    },
    {
      "method": "POST",
      "path": "/general-notifications",
      "handler": "general-notifications.create",
      "config": {
        "policies": []
      }
    },
    {
      "method": "PUT",
      "path": "/general-notifications/:id",
      "handler": "general-notifications.update",
      "config": {
        "policies": []
      }
    },
    {
      "method": "DELETE",
      "path": "/general-notifications/:id",
      "handler": "general-notifications.delete",
      "config": {
        "policies": []
      }
    }
  ]
}
