{
  "kind": "collectionType",
  "collectionName": "links",
  "info": {
    "name": "Link",
    "description": ""
  },
  "options": {
    "increments": true,
    "timestamps": true,
    "draftAndPublish": false
  },
  "pluginOptions": {},
  "attributes": {
    "name": {
      "type": "string",
      "required": true
    },
    "value": {
      "type": "string"
    }
  }
}
